…
monitoring |>
  group_by(State, Year) |>
  summarise(
    total_discharge = sum(`Total Discharge`, na.rm = TRUE),
    cure_rate = calculate_cured(sum(Cured, na.rm = TRUE), total_discharge),
    default_rate = calculate_default(sum(Default, na.rm = TRUE), total_discharge),
    death_rate = calculate_dead(sum(Death, na.rm = TRUE), total_discharge),
    non_response_rate = calculate_no_response(sum(`Non-Responder`, na.rm = TRUE), total_discharge),
    .groups = "drop"
  )
```

which results in the following:

    #> # A tibble: 72 × 7
    #>    State        Year  total_discharge cure_rate default_rate death_rate
    #>    <chr>        <chr>           <dbl>     <dbl>        <dbl>      <dbl>
    #>  1 Blue Nile    2016             9693     0.889       0.0906    0.0151 
    #>  2 Blue Nile    2017            10286     0.948       0.0399    0.00972
    #>  3 Blue Nile    2018             8807     0.947       0.0404    0.00863
    #>  4 Blue Nile    2019             9882     0.953       0.0366    0.00708
    #>  5 Central Dar… 2016            13313     0.921       0.0440    0.0174 
    #>  6 Central Dar… 2017            18098     0.935       0.0421    0.00912
    #>  7 Central Dar… 2018            17600     0.939       0.0364    0.00955
    #>  8 Central Dar… 2019            18573     0.952       0.0260    0.00549
    #>  9 East Darfur  2016             9895     0.929       0.0550    0.0104 
    #> 10 East Darfur  2017            12611     0.956       0.0327    0.00690
    #> # ℹ 62 more rows
    #> # ℹ 1 more variable: non_response_rate <dbl>
…
