MUAC at admission — muac_admission • squeacr
…
| Telkuk | MUAC at admission data for Telkuk locality |
| Halfa | MUAC at admission data for Halfa locality |
| Kassala | MUAC at admission data for Kassala locality |
| Naher Atbara | MUAC at admission data for Naher Atbara locality |

    Source

    A CMAM programme evaluation in Sudan

    Examples

muac_admission

#> $Telkuk
#> # A tibble: 56 x 12
#>     muac state locality `Tahdi Osisi` Tahajer `Maman Almisgid` Tawayeet
#>    <dbl> <chr> <chr>            <dbl>   <dbl>            <dbl>    <dbl>
#>  1   115 Kass… Telkuk               0       1                0        0
#>  2   114 Kass… Telkuk               1       1                2        6
#>  3   113 Kass… Telkuk               3       5                2       18
#>  4   112 Kass… Telkuk               3       8                7       11
#>  5   111 Kass… Telkuk               5       5                0        1
#>  6   110 Kass… Telkuk               4      14               12       22
#>  7   109 Kass… Telkuk               2       5                0        1
#>  8   108 Kass… Telkuk               0       3                0        1
#>  9   107 Kass… Telkuk               0       1                0        4
#> 10   106 Kass… Telkuk               0       1                0        0
#> # … with 46 more rows, and 5 more variables: `Gedamaib masjed` <dbl>,
#> #   Temekref <dbl>, Edrut <dbl>, `Haladet Shareg` <dbl>, Baryay <dbl>
#> 
#> $Halfa
#> # A tibble: 56 x 6
#>     muac state   locality `Alhara alula` Masak Omrahaw
#>    <dbl> <chr>   <chr>             <dbl> <dbl>   <dbl>
#>  1   115 Kassala Halfa                 1     0       0
#>  2   114 Kassala Halfa                 3     1      14
#>  3   113 Kassala Halfa                 3     2       5
#>  4   112 Kassala Halfa                 5     4       2
#>  5   111 Kassala Halfa                 1     2       4
#>  6   110 Kassala Halfa                 3     0       4
#>  7   109 Kassala Halfa                 0     1       0
#>  8   108 Kassala Halfa                 3     0       0
#>  9   107 Kassala Halfa                 2     0       0
#> 10   106 Kassala Halfa                 0     0       0
#> # … with 46 more rows
#> 
#> $Kassala
#> # A tibble: 56 x 7
#>     muac state   locality Mukram `Hamd Wkill` Yahyaalhisan `Al Kuaty hospital`
#>    <dbl> <chr>   <chr>     <dbl>        <dbl>        <dbl>               <dbl>
#>  1   115 Kassala Kassala       0            0            0                   0
#>  2   114 Kassala Kassala       0            0            2                   2
#>  3   113 Kassala Kassala      20            0           15                   0
#>  4   112 Kassala Kassala      44            1            6                   1
#>  5   111 Kassala Kassala      34            1            8                   0
#>  6   110 Kassala Kassala      19            7           17                   5
#>  7   109 Kassala Kassala       5            0            4                   2
#>  8   108 Kassala Kassala       8            0            1                   0
#>  9   107 Kassala Kassala       1            0            1                   2
#> 10   106 Kassala Kassala       0            0            0                   1
#> # … with 46 more rows
#> 
#> $`Naher Atbara`
#> # A tibble: 56 x 8
#>     muac state   locality     `8 - Arab` Sabaat Almazar Alelawi Reara
#>    <dbl> <chr>   <chr>             <dbl>  <dbl>   <dbl>   <dbl> <dbl>
#>  1   115 Kassala Naher Atbara          0      0       0       0     0
#>  2   114 Kassala Naher Atbara          2      1       1       4     6
#>  3   113 Kassala Naher Atbara          4     14       0       4    25
#>  4   112 Kassala Naher Atbara          4      9       7       6    20
#>  5   111 Kassala Naher Atbara          0     12       2       4    17
#>  6   110 Kassala Naher Atbara         34      9      12      11     2
#>  7   109 Kassala Naher Atbara          1      1       0       0     0
#>  8   108 Kassala Naher Atbara          1      1       0       1     4
#>  9   107 Kassala Naher Atbara          0      5       1       0     1
#> 10   106 Kassala Naher Atbara          0      1       0       3     0
#> # … with 46 more rows
#> 
#> $`El Fasher`
#> # A tibble: 56 x 8
#>     muac state locality Alnhdua `sid El shohada` `Abu Shock camp` Abudegeis
#>    <dbl> <chr> <chr>      <dbl>            <dbl>            <dbl>     <dbl>
#>  1   115 Nort… El Fash…       2                2               11         0
#>  2   114 Nort… El Fash…       2               28               42        39
#>  3   113 Nort… El Fash…      11               76               85        32
#>  4   112 Nort… El Fash…      32               40              106        17
#>  5   111 Nort… El Fash…      25               27               54         2
#>  6   110 Nort… El Fash…      39               24              137        17
#>  7   109 Nort… El Fash…       4                8               41         2
#>  8   108 Nort… El Fash…       8               24               20         1
#>  9   107 Nort… El Fash…       6               19               21         1
#> 10   106 Nort… El Fash…       1               10               12         0
#> # … with 46 more rows, and 1 more variable: Golo <dbl>
#> 
#> $Tawila
#> # A tibble: 56 x 8
#>     muac state        locality `Rownda A` Tungor Tardonat  Dali `Tawila Hospita…
#>    <dbl> <chr>        <chr>         <dbl>  <dbl>    <dbl> <dbl>            <dbl>
#>  1   115 North Darfur Tawila            0      0        0     0                0
#>  2   114 North Darfur Tawila            6     15       11    35               27
#>  3   113 North Darfur Tawila           14     15       14    39               30
#>  4   112 North Darfur Tawila           34     15       10    11                5
#>  5   111 North Darfur Tawila           14      3        2     5                1
#>  6   110 North Darfur Tawila           32      4        7    15               42
#>  7   109 North Darfur Tawila            3      0        0     5                2
#>  8   108 North Darfur Tawila            9      0        0     4                7
#>  9   107 North Darfur Tawila            6      0        2     2                1
#> 10   106 North Darfur Tawila            9      0        1     1                1
#> # … with 46 more rows
#> 
#> $Kutumu
#> # A tibble: 56 x 7
#>     muac state        locality `Kutum Health Centre` Kassab   Amo Damrat
#>    <dbl> <chr>        <chr>                    <dbl>  <dbl> <dbl>  <dbl>
#>  1   115 North Darfur Kutumu                       0      0     1      0
#>  2   114 North Darfur Kutumu                      22     21     2      9
#>  3   113 North Darfur Kutumu                      18     56     5      8
#>  4   112 North Darfur Kutumu                      11     25     9      4
#>  5   111 North Darfur Kutumu                      14     18     3      7
#>  6   110 North Darfur Kutumu                       4     23     1      5
#>  7   109 North Darfur Kutumu                       6      1     1      1
#>  8   108 North Darfur Kutumu                       5      3     0      0
#>  9   107 North Darfur Kutumu                       0      1     0      0
#> 10   106 North Darfur Kutumu                       4      0     0      0
#> # … with 46 more rows
…
