Outpatient Therapeutic Care Programme (OTP) beneficiaries data — otpData • squeacr
…
stateName of state

localityName of locality

health_facilityName of health facility

    Source

    Data collected from beneficiary cards from Kassala State, Sudan

    Examples

otpData

#> # A tibble: 151 x 13
#>    index   age  muac    wt    ht admDate             disDate             diswt
#>    <dbl> <dbl> <dbl> <dbl> <dbl> <dttm>              <dttm>              <dbl>
#>  1     1    10  11     6.6  69.5 2020-07-07 00:00:00 2020-01-01 00:00:00   7.5
#>  2     2    18  11     7.2  73.5 2020-07-07 00:00:00 2020-08-18 00:00:00   7.8
#>  3     3    12  11.2   7.5  73.5 2020-07-14 00:00:00 2020-08-19 00:00:00   8.1
#>  4     4    12  11.5   6.4  70   2020-07-07 00:00:00 2020-08-25 00:00:00   7.2
#>  5     5    12  11     6.5  71   2020-07-21 00:00:00 2020-09-01 00:00:00   7.3
#>  6     6    19  11.2   7.3  74   2020-07-12 00:00:00 2020-09-01 00:00:00   8  
#>  7     7    12  11     6    68.5 2020-07-23 00:00:00 2020-08-11 00:00:00   7.1
#>  8     8    10  10.4   5.6  69   2020-05-18 00:00:00 2020-08-01 00:00:00   7.7
#>  9     9    17  10.2   6.7  71   2020-05-19 00:00:00 2020-08-11 00:00:00   8.1
#> 10    10    12  11     6.2  69   2020-05-19 00:00:00 2020-07-07 00:00:00   7.3
#> # … with 141 more rows, and 5 more variables: attended <dbl>, exitType <chr>,
#> #   state <chr>, locality <chr>, health_facility <chr>
…
