Time-to-travel to health facilities for beneficiaries and volunteers — time_to_travel • squeacr
…
61 to 90Travel time of 61 minutes to 90 minutes

91 to 120Travel time of 91 minutes to 120 minutes

more than 120Travel time of more than 120 minutes

    Source

    Data collected from beneficiary cards from Kassala State, Sudan

    Examples

time_to_travel

#> # A tibble: 63 x 9
#>    State Locality `Health Facilit… Category `30 or less` `31 to 60` `61 to 90`
#>    <chr> <chr>    <chr>            <chr>           <dbl>      <dbl>      <dbl>
#>  1 Kass… Telkuk   Tahdi Osisi      Admissi…           25          0          0
#>  2 Kass… Telkuk   Tahdi Osisi      Default…            0          0          0
#>  3 Kass… Telkuk   Tahdi Osisi      Volunte…            5          0          0
#>  4 Kass… Telkuk   Tahajer          Admissi…            4         42         10
#>  5 Kass… Telkuk   Tahajer          Default…            0          0          0
#>  6 Kass… Telkuk   Tahajer          Volunte…            1          4          1
#>  7 Kass… Telkuk   Maman Almisgid   Admissi…            0         37          0
#>  8 Kass… Telkuk   Maman Almisgid   Default…            0          0          0
#>  9 Kass… Telkuk   Maman Almisgid   Volunte…            4          0          0
#> 10 Kass… Telkuk   Tawayeet         Admissi…            1          5          0
#> # … with 53 more rows, and 2 more variables: `91 to 120` <dbl>, `more than
#> #   120` <dbl>
…
